&title=†渚の小悪魔ラヴリィ～レイディオ†
&freemsg=夏色ビキニのPrim
&wholebpm=190
&seek=0
&wait=0.22
//&first=0.79
&lv_5=萌
&inote_5=(190){8}
12,,56,,78,,34,,
8,1,2,7,3,6,4,5,
12,,56,,78,,34,,
6h[4:1],8,2,,18,2,3,4,

6h[4:1],,8,1h[4:1],,7,8,2,
3,7,4,6h[4:1],,3,2,8,
5,1h[4:1],,,,2,3,4,
5b,,3b,,7b,,1b,,
2,,7h[4:1],6h[8:3],,,,,
3,7,4,6,,1,6,8,
1h[4:1],,3,7h[4:1],,1,4,1,
{4}67,23,45,1b/2b,

8^5[2:1],1,2,3,
1^4[2:1],8,7,6,
3^6[2:1],7,8,1,
{8}2,7,3,6,,1b/8b,{4}1b/8b,
2^7[2:1],3,4,5,
1^4[2:1],8,7,6,
{8}8,1,7,2,6,3,4,5,
12,78,56,34,4-1[8:1]/5-8[8:1],,,,

5h[1:1],,1,,2,,1,,
3h[4:1],,,4h[4:1],,,5,,
2h[4:1],,6,4h[4:1],,8,,6,
7h[2:1],,,,3b,7b,,,
67,58,14,23,,27,36,45,
,18,27,36,{16}78,,,12,,,18,,
1h[4:1]/8h[4:1],,,,,,,,8,,,2,,,4,,
{8}67,,23,,18,,27,,
5,,7,8,,8,,3,
,1,,7,,2,,1,
8,,7,7,,6,,3,
1-4[8:1]/8-5[8:1],,,,4-1[8:1]/5-8[8:1],,,,
2,4,3-7[8:1],3,,8,7,6-2[8:1],
,7,6,5,{16}4,,,3,,,3,,{8}
1h[4:3],,,,3h[4:1],,,,
1b/8b,,,2b/6b,,,4b/5b,,
78,16,25,34,,,12,38,
47,56,,,1b/8b,,1b/8b,,
56,47,38,12,,,34,25,
16,78,,,{16}1,2,1,,8,7,6,5,

{8}
8,1,7,2,6,3,5,4,
5,4,6,3,7,2,8,1,
7,2,6,3,8,1,5,4,
78,,12,,56,,34,,
3,2,4,1,5,8,6,7,
6,7,5,8,4,1,3,2,
67,58,14,23,45,36,27,18,
{16}1,2,3,4,8,7,6,5,1,2,3,4,5,6,7,,
{8}
8b,1b,7b,2b,,,4b,5b,
6b,3b,,,,,,,
6b,7b,5b,8b,,,2b,3b,
1b,4b,,,,,,,

{4}
1^4[4:11],,6,,
7,,7,8,
6,7,7,,
6h[4:1],,7h[4:1],,
1^6[4:7],,2,,
3,,4,,
5h[4:1],,,{8}27,36,
4h[2:1]/5h[2:1],,,,,,,,
4/6b,,,,,,,,
1/2b,,,6b/7,,,3/4b,,

7h[4:3],,,,,,,,
3h[8:3],,,1h[8:3],,,5,,
7,,8,1,,4,,2,
1h[2:1],,,,7b,7b,,,
45,27,18,36,,14,58,67,
,78,67,56,{16}45,,,34,,,23,,
2h[4:1]/3h[4:1],,,,,,,,1,,,3,,,5,,
{8}6,,3,,7,,2,,
56,,1,1,,2,,3h[4:1],
,,,46,,56,,7,
8,,3,2,,1h[8:3],,,
1-4[8:1]/8-5[8:1],,,,4-1[8:1]/5-8[8:1],,,,
3,1,2-6[8:1],2,,5,6,7-3[8:1],
,6,7,8,{16}1,,,2,,,2,,{8}
4h[4:3],,,,2h[4:1],,,,
4b/5b,,,3b/7b,,,1b/8b,,
12,38,47,56,,,56,47,
38,12,,,2b/6b,,3b/7b,,
34,25,16,78,,,78,16,
25,34,,,{16}5,6,5,,6,3,7,4,
{8}15,26,37,48,,15,26,3h[4:1]/7h[4:1],
,,4b/5b,2b/7b,,
{1},,
E

