&title=chaplet
&freemsg=DJ TOTTO
&wholebpm=200
//&first=0
&seek=0.7
&wait=0
&lv_1=
&lv_2=
&lv_3=
&lv_4=
&lv_5=⑩

&inote_5=(200){1}
3b/5h[1:2],
,
2h[1:2],
,
6h[1:2],
,
4h[1:2],
{4},,1^6[4:1],,5h[1:2],4,4,3,2,4,4,3,
2h[1:2],8,8,7,6,8,8,7,6h[1:1],5,4^1[4:1],,{1}8h[1:1],
{4}3h[1:1],4,5^8[4:1],,{1}7h[1:1],
{2}5b,{12}6,4,6,3,5,3,
5,,5,4,,4,3,,3,2,,2,
1,,1,4,3,2,1,7,1,8,2,8,
1,8,1,7,2,7,3,6,3,5,4,5,
{1}4-1[4:1]/6-1[4:1],
{12}5,4,5,3,,2,1,8,1,7,,6,
2,6,2,7,3,7,1,5,1,8,4,8,
{2}4^1[4:1],8^5[4:1],
{4}2^7[4:1],7^4[4:1],4^1[4:1],4b,

{12}1,,1,2,,2,3,,3,4,,4,
5,,5,6,,6,7,,7,8,,8,
1,,1,6,,6,2,,2,7,,7,
3b,,3b/7b,,4b/8b,,1b/5b,,2b/6b,,3b/7b,,
{4}4^1[4:1]/8^5[4:1],,,4b/8b,1^4[4:1]/5^8[4:1],,,1b/5b,
{4}7-2[4:1]/2^5[4:1],,5-1[4:1]/2^5[4:1],
1^4[4:1],4^7[4:1],7^2[4:1],2^5[4:1],,

{12}5h[4:1],,,,4,3,2h[4:1],,,,1,8,
{2}7^2[4:1],{6}2b,4b,6b,
{12}4h[4:1],,,,5,6,7h[4:1],,,,8,1,
{2}2^7[4:1],{6}7b,5b,3b,
{4}1h[2:1],,,{12},7,1,8,,8,2,,2,{6}4b,6b,8b,
{2}3h[1:1],,6h[2:1],2h[2:1],

{12}4h[4:1],,,,5,6,7h[4:1],,,,8,1,
{2}2^7[4:1],{6}7b,5b,3b,
{12}1h[4:1],,,,2,3,4h[4:1],,,,5,6,
{2}7^4[4:1],{6}4b,2b,8b,
{4}6h[2:1],,,{12},7,1,8,,8,2,,2,{6}4b,6b,8b,
{2}3h[2:3],,6h[4:1],{16}8,7,6,5,4,3,2,1,

{2}8b/2h[1:1],,1h[1:1],,8h[1:1],,7h[2:1],1h[2:1],
8h[1:1],,2h[1:1],,7h[1:1],,1h[1:1],8-4[4:1],

4h[1:1],,2h[1:1],,8h[1:1],,6h[2:1],7h[2:1],
8h[1:1],,2h[1:1],,7h[1:1],,1h[2:1],{12}8,2,7,3,6,4,
4b,,4,5,,5,6,,6,7,,7,
8,,8,4,8,4,1,,1,5,1,5,
1b,,1,2,,2,3,,3,4,,4,
{1}5^2[4:1],
{12}4,5,4,6,,6,5,4,5,3,,3,
8,1,8,2,,2,1,8,1,7,,7,
{2}6-2[4:1],{4}3-7[4:1],7^2[4:1],2^5[4:1],5^8[4:1],,8b,

{12}1,,1,2,,2,3,,3,4,,4,
5,,5,6,,6,7,,7,8,,8,
1,,1,6,,6,2,,2,7,,7,
3b,,3b/7b,,4b/8b,,1b/5b,,2b/6b,,3b/7b,,
{4}4^1[4:1]/8^5[4:1],,,4b/8b,1^4[4:1]/5^8[4:1],,,1b/5b,
{4}7-2[4:1]/2^5[4:1],,5-1[4:1]/2^5[4:1],
1^4[4:1],4^7[4:1],7^2[4:1],2^5[4:1],,

{12}5,4,3,2,1,,4,5,6,7-3[4:1],8,,{4}3^6[4:1],6-2[4:1],2^7[4:1],,
{12}1,2,3,4,5,,8,7,6,5^8[4:1],4,,{4}8-4[4:1],4^1[4:1],1-5[4:1],,
{12}5,4,6,3,7,,1,8,2,7^2[4:1],3,,{4}2-6[4:1],6^3[4:1],3-7[4:1],,
{12}3,6,4,7,,7,4,8,5,1-4[4:1],,1,{4}2-7[4:1],8^5[4:1],5^2[4:1],,
{1},,,,,,
E
