&title=カラフル
&freemsg=Claris「魔法少女まどか☆マギカ」
&wholebpm=178
&lv_1=
&lv_2=
&lv_3=
&lv_4=
&lv_5=⑩
&seek=0
&wait=0.87
&inote_1=

&inote_2=

&inote_3=

&inote_4=

&inote_5=(178){4}
,7,8,1,
{8}
2,,2,2h[4:1],,,,3,
{4}
,2,1,8,
{8}
7,,7,7h[4:1],,,,6,
,,5,,6,,7,,
8h[2:1],,,,,,1,1,
1h[4:1],,4,,4-8[4:3],,,,
{1}7b,
#1>1>8[4:3],
{4}
7-2[4:1],#2-B4[4:1],#4-B6[4:1],,
1-5[4:1],3v3[4:1],2,2,
1-5[4:1],7-2[4:1],#2-4-B4[4:1],,
5,6,7,8,
{1}
1h[2:1],
2h[2:1],
{8}
3h[4:3],,2,1,8,7,6,5,
3b/4b,4b/5b,5b/6b,6b/7b,7b/8b,,2,3,

3h[8:3],,,,4,,5,6,
,7,,8,,,7p7[8:3]/3q3[8:3],,
,,,,,1h[8:7],,8h[8:5],
,,,,,,3,4,
5,,,5,6h[8:7],,4,8>3[8:3],
,,,,,,6,5,
4,,4,3h[8:9],,5,,6<1[8:3],

,,,,,,7,6,
6h[8:3],,,,5,,4,3,
,2,,1,,,1,1,
1,,7,7,,#6-C[8:1]/#2-C[8:1],,,
,,,,,,,,
1h[4:1],,,2,,3,,4,
,,,1,1,1,,1-6[1:1],

{1},
{8}
,,,,37,,48,,
2h[4:1]/6h[4:1],,,12,,65,,15,
,,,,62,,51,,
7h[4:1]/3h[4:1],,,87,,34,,84,

,,,,8-5[8:1],,2p5[8:1],,
8p1[8:1],,,5q4[8:1],,,,,
5-8[8:3],,,,4-1[8:1],,,,
7p2[2:1]/2q7[2:1],,,,,,,,
{4}
7-2[8:1],6-3[8:1],8-4[8:1],,
8-2[8:1],7-3[8:1],6-4[8:1],,
{8}
1,1,,2,8,8,,7,
4,4,,3,5,5,,6,
2b/7b,2b/7b,,,7-2[8:1]/2-5[8:1],,,,
8-5[8:1]/5-2[8:1],,,,#5-2-8-7[8:1]/#7-B4[8:1],,,,

6h[4:1],,7<3[8:1],1,,2,,3h[8:3],
,6,7,8,,1b,,8,
7h[4:1],,,3,,2,,1-6[8:1],
6p5[4:1],,,4,,3,,,
7v2[8:1],,,,3v6[8:1],,,,
36,,72,18,,,3,4,
5<4[4:3],,5b,,7b,,3b,,
,,1>4[8:1]/8<5[8:1],,1-5[8:1]/8-4[8:1],,1b/8b,,
3h[4:1]/6h[4:1],,,45,,27,,1h[4:1]/8h[4:1],
,,37,26,,27,,36,
45,,{24}3,4,5,6,5,4,{8}3,45,,45,
,,,,#4-C-B2-A3[8:1]/#5-C-B7-A6[8:1],,45,,
,,27,,1>4[8:1]/8<5[8:1],,18,,
,,36,,45,,4-1[2:1]/5-8[2:1],,
,,,,,,,,
2b/7b,,,,3,,6,,
,,,,1z5[2:1],,,,
2h[4:1],,,3,,4,,5h[8:4],
,,,6,,{32}4,3,2,1,8,7,6,5,4,3,,
{8}7-5[8:1]/2-4[8:1],,,#6-B6-3-A3[4:1],,#3-B3-6-A6[8:1],,,
1b,,,,{12}2,3,4,5,6,7,

{4}8h[4:7],2,6,2,
7,3,7,{16}3,,3,2,
{4}1h[4:3],7,3,8,
{8}7b/8b,,3b/4b,5b/6b,,1b/2b,,,
{4}#1-6-2-8-4-1[8:5],,,,
7-2[4:1],#2-B4[4:1],#4-B6[4:1],7-2[4:1],
6-3[4:1],8-4[4:1],1,2,
1-5[4:1],7-2[4:1],#2-4-B4[4:1],,
{4}
#1-B3[8:1],#4-B3[8:1],#1-C[8:1],#5-C[8:1],
#1-B8[8:1],#6-B8[4:1],1,8b,
#8-B6[8:1],#5-B6[8:1],#8-C[8:1],#4-C[8:1],
#8-B1[8:1],#3-B1[4:1],8,1b,
{8}
5,4,3,4,5,4,3,4,
5,6,5,4,5,6,5,4,
4p5[2:1],,,,,,5<4[1:2],,
{1},,,,
E
