&title=White Rose Insanity
&freemsg=世阿弥
&wholebpm=138
//&first=0
&seek=2.15
&wait=0
&lv_1=
&lv_2=
&lv_3=
&lv_4=⑪
&lv_5=⑪

&inote_4=(138)(276){4}
1h[1:2],2,3,4,5,6,7,8,
2h[1:2],3,4,5,6,7,8,1,
3h[1:2],4,5,6,7,8,1,2,
4h[1:2],5,6,7,8,1,2,3,
{4}5-1[4:1],5,3-7[4:1],3,1-4[4:1],1,7-2[4:1],7h[1:2],2b,3,4,5,{1}6h[2:1],
{4}4-1[4:1],4,6-2[4:1],6,8-5[4:1],8,2-7[4:1],2h[1:2],7b,6,5,4,{1}3h[2:1],
{4}8-5[4:1],8,3-6[4:1],3,7-4[4:1],7,2-6[4:1],2h[1:1],6b,5,4,3,{1}2h[2:1],
{4}1-6[4:1],1,4-8[4:1],4,2-5[4:1],2,6-1[4:1],6h[1:2],1b,2,3,4,{1}5h[2:1],
{8}6h[8:3],,,4h[4:1],,,4h[4:3]/6h[4:3],,{4},,,5,{8}3h[8:3],,,5h[4:1],,,3h[4:3]/5h[4:3],,{4},,,
5-1[4:1],1-5[4:1],5-8[4:1],8-5[4:1],5-1[4:1],1-4[4:1],4-8[4:1],8-5[4:1],5^8[4:1],8^3[4:1],3^6[4:1],6^1[1:1],,{1},
{8}2h[8:3],,,8h[4:1],,,2h[4:3]/8h[4:3],,{4},,,1,{8}7h[8:3],,,1h[4:1],,,7h[4:3]/1h[4:3],,{4},,,
1-6[4:1],1-4[4:1],1-5[4:1],5-8[4:1],5-1[4:1],5-2[4:1],2-5[4:1],2-7[4:1],2-6[4:1],6^1[4:1],6^3[4:1],6-2[1:1],,{1},
{4}2h[2:1],4,4h[2:1],6,6h[2:1],8,8h[2:1],1,1h[2:1],7,7h[2:1],5,5h[2:1],3,3h[2:1],1,
1h[2:1],5,5h[2:1],8,8h[2:1],4,4h[2:1],7,7h[2:1],3,3h[2:1],6,6h[2:1],2,2h[2:1],7,
7-2[4:1]/3-6[4:1],,,18,1-5[4:1]/8-4[4:1],,,36,6-2[4:1]/3-7[4:1],,,27,2-5[4:1]/7-4[4:1],,,
14,8^5[6:1]/5^2[6:1],,1^4[6:1]/4^7[6:1],,4-7[8:1]/7-4[8:1],,5-2[8:1]/2-5[8:1],,
8-5[8:1]/5-8[8:1],,1-4[8:1]/4-1[8:1],,2-7[4:1]/7-2[4:1],,,,
{8}1-5[4:1],,5,,5,1,4,,8-4[4:1],,4,,4,8,5,,2-6[4:1],,6,,6,3,7,,7-3[4:1],,3,,3,6,2,,
{4}1^4[2:1]/5,6,7,8,5^8[2:1]/1,2,3,4,1-4[2:1]/5,6,7,8,5-8[2:1]/1,2,3,4,
5^8[2:1],6,7,8,1^4[2:1],2,3,4,5-8[2:1],6,7,8,1-4[2:1],2,3,4,
{8}5h[1:1],6,7,8,1,2,3,4,6h[1:1],7,8,1,2,3,4,5,7h[1:1],8,1,2,3,4,5,6,8h[2:1],1,2,3,4,5,6,7,
8-3[4:1],,3,,2,1,2,,1-6[4:1],,6,,7,8,7,,7-4[4:1],,4,,6,5,6,,2-5[4:1],,5,,3,4,3,,
{4}1^4[2:1]/8,7,6,5,5^8[2:1]/4,3,2,1,1-4[2:1]/8,7,6,5,5-8[2:1]/4,3,2,1,
8^5[2:1],1,2,3,4^1[2:1],5,6,7,8-5[2:1],1,2,3,4-1[2:1],5,6,7,
8^5[1:1],8^3[1:1],8-5[1:1],8-3[1:1],{1}8-4[2:5],,,
{16}4h[4:1],3,2,1,8,7,6,5,3h[4:1],2,1,8,7,6,5,4,
{4}2^7[4:1],4,6^1[4:1],4,2^7[4:1],4,6^1[4:1],4,
2-7[4:1],4,7-2[4:1],5,2-7[4:1],4,7-2[4:1],5,
2-6[4:1],4,6-2[4:1],8,7-3[4:1],5,3-7[4:1],1,
2-7[8:1],7-3[8:1],1-5[8:1],8-4[8:1],2b,8b,1b,7b,
6^1[4:1],4,2^7[4:1],4,6^1[4:1],4,2^7[4:1],4,6-3[4:1],8,3-6[4:1],1,6-3[4:1],8,3-6[4:1],1,
6^1[2:1]/2^5[2:1],73,84,15,6^1[2:1]/2^5[2:1],73,84,15,
1^6[2:1]/5^2[2:1],48,37,26,1^6[2:1]/5^2[2:1],48,37,2-6[1:2]/6-2[1:2],{1}3-7[4:7]/7-3[4:7],,,{4},,,
4-8[4:1],8-4[4:1],4-1[4:1],1-4[4:1],4-8[4:1],8-5[4:1],5-1[4:1],1-4[4:1],4^1[4:1],1^6[4:1],6^3[4:1],3^8[1:1],,{1},
{4}2h[1:2],1,8,7,6,5,4,3,1h[2:3],8,7,6,5,4,3,
8-3[4:1],8-5[4:1],8-4[4:1],4-1[4:1],4-8[4:1],4-7[4:1],7-4[4:1],7-2[4:1],7-3[4:1],3^8[4:1],3^6[4:1],3-7[1:1],,{1},
{8}2,6,2,7,3,7,1,5,1,8,4,8,{4}4^7[4:1],8^3[8:1],{8}7,2,7,1,4,1,3,6,3,5,8,5,{4}6-3[2:1],5-8[4:1],,,
{1}1b/2b,
,,,,,
E

&inote_5=(138){16}
1b,,7,,5,,7,6,,6,7,,5,,7,6,8,,2,,4,,2,3,,3,2,,4,4,2,3,
1b,,7,,5,,7,6,,6,7,,5,,7,6,8b,,2,,4,,2,2,4,1,1,4,7,3,7,3,
6-1[8:1],,4,,2,,3,1,3-8[8:1],,5,,7,,6,8,5-2[8:1],,4,,8,,2,3,4,,2,1,8,,2,4,
8-5[8:1],,2,,4,,5,3,1-6[8:1],,7,,5,,6,4,2-7[8:1],,8,,5,,7,4,8,4,1,4,2,4,3,4,
1^4[8:1],,7,,5,,7,6,5^8[8:1],6,7,,,,2,2,8^5[8:1],,2,,4,,2,3,4^1[8:1],3,2,,4h[8:1],,,6,
6^3[8:1],,4,,2,,7,8,1^6[8:1],8,7,,,,1,1,2^7[8:1],,8,,6,,4,6,1,1,4,1,5,2b,6b,3b,
{16}7,,,4,7,,47,,2,,,5,2,,25,,7,,,4,7,,47,,2,,,5,2,,
{8}2-7[8:1]/5-8[8:1],78,25,,4-1[8:1]/7-3[8:1],13,47,,3-6[8:1],1-5[8:1],7-4[8:1],4-1[8:1],4,{16}7b,1,3,,2b,8,6,,
{16}8,,,3,8,,83,,1,,,6,1,,16,,8,,,3,8,,83,,1b,6,1b,3,1b,,
{8}1-5[8:1]/6^3[8:1],35,16,,8-5[8:1]/3-6[8:1],56,83,,7-3[8:1],4-1[8:1],2^5[8:1],5^8[8:1],5,{16}8,1,2,3,4,5,6,7,
{8}8-4[8:1],4,8,4,{16}7-3[8:1],3,7,,{8}7,3,6-2[8:1],2,6,2,{16}5-1[8:1],,5,1,{8}5,1,
4-8[8:1],8,4,8,{16}3-7[8:1],7,3,,{8}3,7,2-6[8:1],6,2,6,{16}1-5[8:1],,1,5,
{8}1^6[8:1],6^3[8:1]/1-4[8:1],,,4^7[8:1],7^2[8:1]/4-8[8:1],,,{4}2^7[4:1],2^5[4:1],2-6[2:1],8^5[16:1]/4^7[16:1],,
{8}24,3,35,3,24,3,13,3,{16}2b/4,,4,4b/1,,,6b/8,,8b,5,7,3,6,2,5,1,
{16}3h[4:1],,1,,6h[4:1],,8,8,8h[4:1],,6,,5h[4:1],,2,2,2h[4:1],,8,,6h[4:1],,4,4,4h[4:1],,7,,1h[4:1],,3,3,
3h[4:1],,7,,5h[4:1],,1,1,1h[4:1],,6,,7h[4:1],,5,5,5h[4:1],,1,,2h[4:1],,6,6,6h[4:1],,7,,5h[4:1],,7,7,
{8}7h[16:3],3-7[8:1],7-3[8:1],,6h[16:3],2-6[8:1],6-2[8:1],,5h[16:3],1-5[8:1],5-1[8:1],,4h[16:3],8-4[8:1],4-8[8:1],,
5h[16:3],1-5[8:1],5-1[8:1],1-4[8:1],1-6[8:1],1^4[8:1],1^6[8:1],1-5[8:1],5-1[8:1],5-8[8:1],5-2[8:1],5^8[8:1],5^2[8:1],,,1b,
{16}1h[4:1],,7,,7h[4:1],,4,4,4h[4:1],,8,,8h[4:1],,3,3,3h[4:1],,6,,6h[4:1],,2,2,2h[4:1],,5,,5h[4:1],,1,4,
2h[4:1],,6,,4h[4:1],,8,8,8h[4:1],,5,,4h[4:1],,3,3,3h[4:1],,4,,5h[4:1],,1,1,1b,4b,1,5b,7b,3,6b,2,
{8}7h[4:1],6-3[8:1],,8-5[8:1],4h[4:1],,2-6[8:1],1-5[2:1],,3,8,4,7,5h[4:1],,,
,5-8[8:1],5-1[8:1],5-2[8:1],5-8[8:1],,,,,8-3[8:1],8-4[8:1],8-5[8:1],8-3[8:1],,,,
{32}1^4[32:1],2^5[32:1],3^6[32:1],4^7[32:1],5^8[32:1],6^1[32:1],7^2[32:1],8^3[32:1],{4},
{8}16,25,38,47,52,61,73,84,14,36,58,72,24,46,68,82,
14,26,38,42,57,68,75,86,16,35,57,78,2b/5b,4b/1b,6b/3b,8b/4b,
13,35,57,71,46,24,82,68,15,26,37,48,12,34,56,78,
2-5[8:1]/7-4[8:1],5-1[16:1]/4-8[16:1],,,5-8[8:1],8^3[8:1],3-7[8:1],7-4[8:1],,,1-4[8:1],,,7-2[8:1],2-6[8:1],6-3[8:1],{1},
{8}7h[8:1]/4h[8:1],,2h[8:1]/5h[8:1],,7h[8:1]/4h[8:1],,25,
{8}2-7[8:1]/5-8[8:1],78,25,,4-1[8:1]/7-3[8:1],13,47,,3-6[8:1],1-5[8:1],7-4[8:1],4-1[8:1],4,{16}7b,1,3,,2b,8,6,,
{8}8,83,3,38,1,16,6,61,8h[8:1]/3h[8:1],,1h[8:1]/6h[8:1],,8h[8:1]/3h[8:1],,1/6,
{8}1-5[8:1]/6^3[8:1],35,16,,8-5[8:1]/3-6[8:1],56,83,,7-3[8:1],4-1[8:1],2^5[8:1],5^8[8:1],5,{16}8,1,2,3,4,5,6,7,
8,8,5b,1,1,4b,2,2,5b,7,7,3b,83,,25,,3,3,8b,5,5,1b,2,2,3b,7,7,4b,42,,35,,{4}4-8[16:1]/5-1[16:1],1^6[2:5]/8^3[2:5],
{1},,,,,,
E

