&title=ヤサイマシ☆ニンニクアブラオオメ
&wholebpm=180
&freemsg=azuma feat. ななひら
&lv_1=
&lv_2=
&lv_3=
&lv_4=⑧
&lv_5=⑩
&seek=0
&wait=0.67

&inote_5=(180){8}
,,,,,,,,
5/4,,6/3,7/2,,1-5[32:1]/8-4[32:1],,,,,
1h[8:4],,7-3[32:1],,,,2,,3,3,,4,,4^7[8:1]/2^7[8:1],,,,,
8/6,,7/5,,6/4,,,
1,6,1,5,1,,,,,,,
1/2,2/3,3/4,,4/5,4/3,,3/2,,1/2,,
{16}1,8,1,,1/8,,,,2,7,2,,2h[8:7]/7h[8:7],,
{8},,,,,,,,
8/6,,,1/3,,,,,4,4,4,4,
{16}4,5,4,5,4,5,4,5,
4,,,,,,4/5,,3h[8:2]/6h[8:2],,,,,,,,
8,1,8,1,8,1,8,1,8,1,2,3,4b,,,,
5,6,5,6,5,,5,,4,5,4,5,4,,,,
{8}1,2,1,2,3,2,3,2,1,2,1,2,
{16}1,2,3,4,5,6,7,8,1b,,,,
{16}1,8,1,8,1,8,1,8,1,,,,
{4}1/7,8/6,7/5,6/4,5/3,6/4,5/7,8/6,1h[2:1]/7h[2:1],,,,
{16}8,,2,2,8,,2,,8b/2,,8/2b,,8b/2,,8/2b,,
4/5,,6/3,,7/2,,1/8,,
1,2,3,4,8,7,6,5,
{8},,7/3,,3,3,7/3,,
4,3,2,1,
{16}
8,7,6,5,4,3,2,,
{8}1,1,2,3,4,5,5,,,
1b,4b,,6b,,,,
4/3,4/3,5/2,5/2,1/6,1/6,7/8,7/8,
8h[2:1]/2h[2:1],
{2},
{8},
{4},1-5[2:1],2,3,4,8-4[2:1],7,6,5,
1-5[2:1],1,3,4,8-4[2:1],8,6,5,
1/8,1/8,4/3,4/3,7/6,7/6,1/2,1/2,
5/4,5/4,8/7,8/7,
1b/8,2b/3,4h[4:1]/5h[4:1],,7/6b,1b/8,2h[4:1]/3h[4:1],,
4b/5b,,,,
{8}
8h[8:1]/7h[8:1],,1h[8:1]/6h[8:1],,
8h[8:1]/7h[8:1],,1h[8:1]/6h[8:1],,
1h[8:1]/2h[8:1],,8h[8:1]/3h[8:1],,
1h[8:1]/2h[8:1],,8h[8:1]/3h[8:1],,
8h[8:1]/7h[8:1],,1h[8:1]/6h[8:1],,
8h[8:1]/7h[8:1],,1h[8:1]/6h[8:1],,
1h[8:1]/2h[8:1],,8h[8:1]/3h[8:1],,
1h[8:1]/2h[8:1],,8h[8:1]/3h[8:1],,
1h[8:1]/6h[8:1],,8h[8:1]/7h[8:1],,
1h[8:1]/6h[8:1],,8h[8:1]/7h[8:1],,
8h[8:1]/3h[8:1],,1h[8:1]/2h[8:1],,
8h[8:1]/3h[8:1],,1h[8:1]/2h[8:1],,
3,,5h[8:7],6,,7,,6,,6,4,3,,
,,,1,1,7,7,2,2,6,6,3,3,5,5,4,4,6,6,
6/3,5/4,5/4,4-8[16:1]/5-1[16:1],,,,1b/8b,,
,,,
2/3,,4/5,6h[8:3]/5h[8:3],,,,,
6,5,6,7h[8:5]/2h[8:5],,,,,,
,8/7,1/6,8/7,,1/2,8/3,,1/2,,3h[8:4],,
6,6,6h[8:19],,3,3,3h[8:15],,,,,,,,,,,,,,,
,,
7/2,6/3,,,6/3,7/2,,,
{16}1,2,3,4,8,7,6,5,
1,2,3,4,5b,,
{8},4,1,7,2,7,1,4,2,,
1h[8:2]/8h[8:2],,,1b/8,1/8b,1/8b,1b/8,
1,2,3,4,5,6,7,48,1,2,3,4,5,6,7,48,
1,3,5,7,2,4,6,8,1,3,5,7,2,4,6,8,
1,2,3,4,5,4,3,2,1,2,3,4,5,6,7,83,1,1,2,2,
1-6[16:1]/2-5[16:1],,,,8-3[16:1]/7-4[16:1],,,,
1-6[16:1]/2-5[16:1],,,,8/7,8-3[16:1]/7-4[16:1],,,
,,,,
1-4[2:5]/8-5[2:5],
{1},,
E

&inote_4=
(180){4}
,,,,
26,26,73,73,
26,73,26,73,
18,18,27,27,
18,27,18,27,
26,26,3h[4:1]/7h[4:1],,
18,18,2h[4:1]/7h[4:1],,
{2}1-4[16:1],8-5[16:1],
1-4[16:1],8-5[16:1],
{1}1h[1:1],{8}8,,,8,,,,,
1,,17,,3,,36,,17,,,36,,,,,
1,,2,,1,2,3,,
8,,7,,8,7,6,,
{4}13,13,86,86,
13,86,2b/7b,,
{4}4h[4:2],,5,5,6h[4:2],,1,1,
4h[4:1],5,6h[4:1],1,
4h[1:1]/6h[1:1],,,,
,46,46,46,
53,53,53,53,
46,46,53,53,
46,53,46,53,
{2}
2-7[16:1],6-3[16:1],
1-4[16:1],5-8[16:1],
1b,,1b,,
{2}
1h[2:1],2,
3h[2:1],4,
5h[2:1],6,
7h[2:1],8,
{4}1h[4:1],2,
3h[4:1],4,
5h[4:1],6,
7h[4:1],8,

1h[4:1],2,
3h[4:1],4,
1,2,3,4,5,6,7,8,1b/8b,,,,
15,15,27,27,84,84,27,27,
15,15,2h[4:1]/7h[4:1],,84,84,2h[4:1]/7h[4:1],,
15,27,84,27,15,27,84,27,
{8}8h[8:2]/4h[8:2],,,15,,84,,1h[8:2],,2,2,3-6[16:1],,,,,
{8}2h[8:2],,1,1,,2,,1,,,18,,45,,76,,
1h[8:2],,2,2,,7,,6h[8:3],,,7,,65,,7,7,,,,1,
{8}8,1,8,1h[8:5],{4},,,
{8}1,2,3,,4,3,,4,,3h[8:4],,
6,6,6h[8:19],,3,3,3h[8:15],,,,,,,,,,,,,,,
{4},24,,13,,24,13,24,1b/3,,1,,5,1,5,2,6b,
{8}1,,8,,1,8,1,,2,,5,,2,5,2,,
1,8,1,,2,5,2,,1,,8,,1^6[16:1],,,,
{4}1,8,1,8,{8}1,8,1,8,1-5[16:1],,{4},
2^7[16:1],,6^1[16:1],,
3h[4:1],2,2,,
1h[4:1],2h[4:1],3h[4:1],8,
2h[4:1],3,45,7-4[16:1]/2-5[16:1],
{1},,
E

